%YAML 1.1
%TAG !u! tag:unity3d.com,2011:
--- !u!1001 &4084300323211009718
PrefabInstance:
  m_ObjectHideFlags: 0
  serializedVersion: 2
  m_Modification:
    m_TransformParent: {fileID: 0}
    m_Modifications:
    - target: {fileID: 2572204448233659065, guid: a7d7735a68618114eb6faceeabab5067, type: 3}
      propertyPath: m_LocalRotation.w
      value: 0.7071068
      objectReference: {fileID: 0}
    - target: {fileID: 2572204448233659065, guid: a7d7735a68618114eb6faceeabab5067, type: 3}
      propertyPath: m_LocalRotation.x
      value: 0
      objectReference: {fileID: 0}
    - target: {fileID: 2572204448233659065, guid: a7d7735a68618114eb6faceeabab5067, type: 3}
      propertyPath: m_LocalRotation.y
      value: 0.7071068
      objectReference: {fileID: 0}
    - target: {fileID: 2572204448233659065, guid: a7d7735a68618114eb6faceeabab5067, type: 3}
      propertyPath: m_LocalRotation.z
      value: 0
      objectReference: {fileID: 0}
    - target: {fileID: 2572204448233659065, guid: a7d7735a68618114eb6faceeabab5067, type: 3}
      propertyPath: m_LocalEulerAnglesHint.y
      value: 90
      objectReference: {fileID: 0}
    - target: {fileID: 4921908979208814354, guid: a7d7735a68618114eb6faceeabab5067, type: 3}
      propertyPath: m_Name
      value: Corner90
      objectReference: {fileID: 0}
    - target: {fileID: 4921908979208814355, guid: a7d7735a68618114eb6faceeabab5067, type: 3}
      propertyPath: m_RootOrder
      value: 0
      objectReference: {fileID: 0}
    - target: {fileID: 4921908979208814355, guid: a7d7735a68618114eb6faceeabab5067, type: 3}
      propertyPath: m_LocalPosition.x
      value: 0
      objectReference: {fileID: 0}
    - target: {fileID: 4921908979208814355, guid: a7d7735a68618114eb6faceeabab5067, type: 3}
      propertyPath: m_LocalPosition.y
      value: 0
      objectReference: {fileID: 0}
    - target: {fileID: 4921908979208814355, guid: a7d7735a68618114eb6faceeabab5067, type: 3}
      propertyPath: m_LocalPosition.z
      value: 0
      objectReference: {fileID: 0}
    - target: {fileID: 4921908979208814355, guid: a7d7735a68618114eb6faceeabab5067, type: 3}
      propertyPath: m_LocalRotation.w
      value: 1
      objectReference: {fileID: 0}
    - target: {fileID: 4921908979208814355, guid: a7d7735a68618114eb6faceeabab5067, type: 3}
      propertyPath: m_LocalRotation.x
      value: 0
      objectReference: {fileID: 0}
    - target: {fileID: 4921908979208814355, guid: a7d7735a68618114eb6faceeabab5067, type: 3}
      propertyPath: m_LocalRotation.y
      value: 0
      objectReference: {fileID: 0}
    - target: {fileID: 4921908979208814355, guid: a7d7735a68618114eb6faceeabab5067, type: 3}
      propertyPath: m_LocalRotation.z
      value: 0
      objectReference: {fileID: 0}
    - target: {fileID: 4921908979208814355, guid: a7d7735a68618114eb6faceeabab5067, type: 3}
      propertyPath: m_LocalEulerAnglesHint.x
      value: 0
      objectReference: {fileID: 0}
    - target: {fileID: 4921908979208814355, guid: a7d7735a68618114eb6faceeabab5067, type: 3}
      propertyPath: m_LocalEulerAnglesHint.y
      value: 0
      objectReference: {fileID: 0}
    - target: {fileID: 4921908979208814355, guid: a7d7735a68618114eb6faceeabab5067, type: 3}
      propertyPath: m_LocalEulerAnglesHint.z
      value: 0
      objectReference: {fileID: 0}
    m_RemovedComponents: []
  m_SourcePrefab: {fileID: 100100000, guid: a7d7735a68618114eb6faceeabab5067, type: 3}
